{
  "errors": [],
  "warnings": [],
  "version": "1.15.0",
  "hash": "49883b59bd79ffecb92b",
  "time": 634,
  "publicPath": "",
  "assetsByChunkName": {
    "about": "about.js",
    "home": "home.js",
    "common": "common.js"
  },
  "assets": [
    {
      "name": "about.js",
      "size": 963,
      "chunks": [
        0
      ],
      "chunkNames": [
        "about"
      ],
      "emitted": true
    },
    {
      "name": "home.js",
      "size": 953,
      "chunks": [
        1
      ],
      "chunkNames": [
        "home"
      ],
      "emitted": true
    },
    {
      "name": "common.js",
      "size": 10900,
      "chunks": [
        2
      ],
      "chunkNames": [
        "common"
      ],
      "emitted": true
    }
  ],
  "chunks": [
    {
      "id": 0,
      "rendered": true,
      "initial": true,
      "entry": false,
      "extraAsync": false,
      "size": 318,
      "names": [
        "about"
      ],
      "files": [
        "about.js"
      ],
      "hash": "f1ea5f40718fe6ace2ee",
      "parents": [
        2
      ],
      "modules": [
        {
          "id": 0,
          "identifier": "E:\\wamp64\\www\\qEVOLI\\TRAININGtask\\webPack\\part3\\node_modules\\babel-loader\\index.js?optional[]=runtime!E:\\wamp64\\www\\qEVOLI\\TRAININGtask\\webPack\\part3/frontend\\about.js",
          "name": "./about.js",
          "index": 0,
          "index2": 3,
          "size": 318,
          "cacheable": true,
          "built": true,
          "optional": false,
          "prefetched": false,
          "chunks": [
            0
          ],
          "assets": [],
          "issuer": null,
          "profile": {
            "factory": 464,
            "building": 79,
            "dependencies": 35
          },
          "failed": false,
          "errors": 0,
          "warnings": 0,
          "reasons": [],
          "source": "'use strict';\n\n//let welcome = require('./welcome');\n\nvar _interopRequireDefault = require('babel-runtime/helpers/interop-require-default')['default'];\n\nvar _welcome = require('./welcome');\n\nvar _welcome2 = _interopRequireDefault(_welcome);\n\n(0, _welcome2['default'])('about');\n\nexports.welcome = _welcome2['default'];"
        }
      ],
      "filteredModules": 0,
      "origins": [
        {
          "moduleId": 0,
          "module": "E:\\wamp64\\www\\qEVOLI\\TRAININGtask\\webPack\\part3\\node_modules\\babel-loader\\index.js?optional[]=runtime!E:\\wamp64\\www\\qEVOLI\\TRAININGtask\\webPack\\part3/frontend\\about.js",
          "moduleIdentifier": "E:\\wamp64\\www\\qEVOLI\\TRAININGtask\\webPack\\part3\\node_modules\\babel-loader\\index.js?optional[]=runtime!E:\\wamp64\\www\\qEVOLI\\TRAININGtask\\webPack\\part3/frontend\\about.js",
          "moduleName": "./about.js",
          "loc": "",
          "name": "about",
          "reasons": []
        }
      ]
    },
    {
      "id": 1,
      "rendered": true,
      "initial": true,
      "entry": false,
      "extraAsync": false,
      "size": 317,
      "names": [
        "home"
      ],
      "files": [
        "home.js"
      ],
      "hash": "cd35b57b328f3d4d3d99",
      "parents": [
        2
      ],
      "modules": [
        {
          "id": 0,
          "identifier": "E:\\wamp64\\www\\qEVOLI\\TRAININGtask\\webPack\\part3\\node_modules\\babel-loader\\index.js?optional[]=runtime!E:\\wamp64\\www\\qEVOLI\\TRAININGtask\\webPack\\part3/frontend\\home.js",
          "name": "./home.js",
          "index": 4,
          "index2": 4,
          "size": 317,
          "cacheable": true,
          "built": true,
          "optional": false,
          "prefetched": false,
          "chunks": [
            1
          ],
          "assets": [],
          "issuer": null,
          "profile": {
            "factory": 17,
            "building": 515
          },
          "failed": false,
          "errors": 0,
          "warnings": 0,
          "reasons": [],
          "source": "'use strict';\n\n//let welcome = require('./welcome');\n\nvar _interopRequireDefault = require('babel-runtime/helpers/interop-require-default')['default'];\n\nvar _welcome = require('./welcome');\n\nvar _welcome2 = _interopRequireDefault(_welcome);\n\n(0, _welcome2['default'])('home');\n\nexports.welcome = _welcome2['default'];"
        }
      ],
      "filteredModules": 0,
      "origins": [
        {
          "moduleId": 0,
          "module": "E:\\wamp64\\www\\qEVOLI\\TRAININGtask\\webPack\\part3\\node_modules\\babel-loader\\index.js?optional[]=runtime!E:\\wamp64\\www\\qEVOLI\\TRAININGtask\\webPack\\part3/frontend\\home.js",
          "moduleIdentifier": "E:\\wamp64\\www\\qEVOLI\\TRAININGtask\\webPack\\part3\\node_modules\\babel-loader\\index.js?optional[]=runtime!E:\\wamp64\\www\\qEVOLI\\TRAININGtask\\webPack\\part3/frontend\\home.js",
          "moduleName": "./home.js",
          "loc": "",
          "name": "home",
          "reasons": []
        }
      ]
    },
    {
      "id": 2,
      "rendered": true,
      "initial": true,
      "entry": true,
      "extraAsync": false,
      "size": 537,
      "names": [
        "common"
      ],
      "files": [
        "common.js"
      ],
      "hash": "79bc44dcb86dd63c76a0",
      "parents": [],
      "modules": [
        {
          "id": 1,
          "identifier": "E:\\wamp64\\www\\qEVOLI\\TRAININGtask\\webPack\\part3\\node_modules\\babel-loader\\index.js?optional[]=runtime!E:\\wamp64\\www\\qEVOLI\\TRAININGtask\\webPack\\part3\\node_modules\\babel-runtime\\helpers\\interop-require-default.js",
          "name": "../~/babel-runtime/helpers/interop-require-default.js",
          "index": 1,
          "index2": 1,
          "size": 70,
          "cacheable": true,
          "built": true,
          "optional": false,
          "prefetched": false,
          "chunks": [
            2
          ],
          "assets": [],
          "issuer": "E:\\wamp64\\www\\qEVOLI\\TRAININGtask\\webPack\\part3\\node_modules\\babel-loader\\index.js?optional[]=runtime!E:\\wamp64\\www\\qEVOLI\\TRAININGtask\\webPack\\part3/frontend\\home.js",
          "profile": {
            "factory": 50,
            "building": 8
          },
          "failed": false,
          "errors": 0,
          "warnings": 0,
          "reasons": [
            {
              "moduleId": 0,
              "moduleIdentifier": "E:\\wamp64\\www\\qEVOLI\\TRAININGtask\\webPack\\part3\\node_modules\\babel-loader\\index.js?optional[]=runtime!E:\\wamp64\\www\\qEVOLI\\TRAININGtask\\webPack\\part3/frontend\\home.js",
              "module": "./home.js",
              "moduleName": "./home.js",
              "type": "cjs require",
              "userRequest": "babel-runtime/helpers/interop-require-default",
              "loc": "5:29-85"
            },
            {
              "moduleId": 0,
              "moduleIdentifier": "E:\\wamp64\\www\\qEVOLI\\TRAININGtask\\webPack\\part3\\node_modules\\babel-loader\\index.js?optional[]=runtime!E:\\wamp64\\www\\qEVOLI\\TRAININGtask\\webPack\\part3/frontend\\about.js",
              "module": "./about.js",
              "moduleName": "./about.js",
              "type": "cjs require",
              "userRequest": "babel-runtime/helpers/interop-require-default",
              "loc": "5:29-85"
            }
          ],
          "source": "\"use strict\";\n\nmodule.exports = require(\"./interopRequireDefault.js\");"
        },
        {
          "id": 2,
          "identifier": "E:\\wamp64\\www\\qEVOLI\\TRAININGtask\\webPack\\part3\\node_modules\\babel-loader\\index.js?optional[]=runtime!E:\\wamp64\\www\\qEVOLI\\TRAININGtask\\webPack\\part3\\node_modules\\babel-runtime\\helpers\\interopRequireDefault.js",
          "name": "../~/babel-runtime/helpers/interopRequireDefault.js",
          "index": 2,
          "index2": 0,
          "size": 148,
          "cacheable": true,
          "built": true,
          "optional": false,
          "prefetched": false,
          "chunks": [
            2
          ],
          "assets": [],
          "issuer": "E:\\wamp64\\www\\qEVOLI\\TRAININGtask\\webPack\\part3\\node_modules\\babel-loader\\index.js?optional[]=runtime!E:\\wamp64\\www\\qEVOLI\\TRAININGtask\\webPack\\part3\\node_modules\\babel-runtime\\helpers\\interop-require-default.js",
          "profile": {
            "factory": 3,
            "building": 11
          },
          "failed": false,
          "errors": 0,
          "warnings": 0,
          "reasons": [
            {
              "moduleId": 1,
              "moduleIdentifier": "E:\\wamp64\\www\\qEVOLI\\TRAININGtask\\webPack\\part3\\node_modules\\babel-loader\\index.js?optional[]=runtime!E:\\wamp64\\www\\qEVOLI\\TRAININGtask\\webPack\\part3\\node_modules\\babel-runtime\\helpers\\interop-require-default.js",
              "module": "../~/babel-runtime/helpers/interop-require-default.js",
              "moduleName": "../~/babel-runtime/helpers/interop-require-default.js",
              "type": "cjs require",
              "userRequest": "./interopRequireDefault.js",
              "loc": "3:17-54"
            }
          ],
          "source": "\"use strict\";\n\nexports.__esModule = true;\n\nexports[\"default\"] = function (obj) {\n  return obj && obj.__esModule ? obj : {\n    \"default\": obj\n  };\n};"
        },
        {
          "id": 3,
          "identifier": "E:\\wamp64\\www\\qEVOLI\\TRAININGtask\\webPack\\part3\\node_modules\\babel-loader\\index.js?optional[]=runtime!E:\\wamp64\\www\\qEVOLI\\TRAININGtask\\webPack\\part3/frontend\\welcome.js",
          "name": "./welcome.js",
          "index": 3,
          "index2": 2,
          "size": 319,
          "cacheable": true,
          "built": true,
          "optional": false,
          "prefetched": false,
          "chunks": [
            2
          ],
          "assets": [],
          "issuer": "E:\\wamp64\\www\\qEVOLI\\TRAININGtask\\webPack\\part3\\node_modules\\babel-loader\\index.js?optional[]=runtime!E:\\wamp64\\www\\qEVOLI\\TRAININGtask\\webPack\\part3/frontend\\home.js",
          "profile": {
            "factory": 18,
            "building": 32
          },
          "failed": false,
          "errors": 0,
          "warnings": 0,
          "reasons": [
            {
              "moduleId": 0,
              "moduleIdentifier": "E:\\wamp64\\www\\qEVOLI\\TRAININGtask\\webPack\\part3\\node_modules\\babel-loader\\index.js?optional[]=runtime!E:\\wamp64\\www\\qEVOLI\\TRAININGtask\\webPack\\part3/frontend\\home.js",
              "module": "./home.js",
              "moduleName": "./home.js",
              "type": "cjs require",
              "userRequest": "./welcome",
              "loc": "7:15-35"
            },
            {
              "moduleId": 0,
              "moduleIdentifier": "E:\\wamp64\\www\\qEVOLI\\TRAININGtask\\webPack\\part3\\node_modules\\babel-loader\\index.js?optional[]=runtime!E:\\wamp64\\www\\qEVOLI\\TRAININGtask\\webPack\\part3/frontend\\about.js",
              "module": "./about.js",
              "moduleName": "./about.js",
              "type": "cjs require",
              "userRequest": "./welcome",
              "loc": "7:15-35"
            }
          ],
          "source": "'use strict';\n\n//module.exports = function(message){//ES5\n\nObject.defineProperty(exports, '__esModule', {\n    value: true\n});\n\nexports['default'] = function (message) {\n\n    if (NODE_ENV == 'development') {\n        console.log(message);\n    }\n\n    alert('Welcome ' + message);\n};\n\n;\nmodule.exports = exports['default'];"
        }
      ],
      "filteredModules": 0,
      "origins": []
    }
  ],
  "modules": [
    {
      "id": 0,
      "identifier": "E:\\wamp64\\www\\qEVOLI\\TRAININGtask\\webPack\\part3\\node_modules\\babel-loader\\index.js?optional[]=runtime!E:\\wamp64\\www\\qEVOLI\\TRAININGtask\\webPack\\part3/frontend\\about.js",
      "name": "./about.js",
      "index": 0,
      "index2": 3,
      "size": 318,
      "cacheable": true,
      "built": true,
      "optional": false,
      "prefetched": false,
      "chunks": [
        0
      ],
      "assets": [],
      "issuer": null,
      "profile": {
        "factory": 464,
        "building": 79,
        "dependencies": 35
      },
      "failed": false,
      "errors": 0,
      "warnings": 0,
      "reasons": [],
      "source": "'use strict';\n\n//let welcome = require('./welcome');\n\nvar _interopRequireDefault = require('babel-runtime/helpers/interop-require-default')['default'];\n\nvar _welcome = require('./welcome');\n\nvar _welcome2 = _interopRequireDefault(_welcome);\n\n(0, _welcome2['default'])('about');\n\nexports.welcome = _welcome2['default'];"
    },
    {
      "id": 0,
      "identifier": "E:\\wamp64\\www\\qEVOLI\\TRAININGtask\\webPack\\part3\\node_modules\\babel-loader\\index.js?optional[]=runtime!E:\\wamp64\\www\\qEVOLI\\TRAININGtask\\webPack\\part3/frontend\\home.js",
      "name": "./home.js",
      "index": 4,
      "index2": 4,
      "size": 317,
      "cacheable": true,
      "built": true,
      "optional": false,
      "prefetched": false,
      "chunks": [
        1
      ],
      "assets": [],
      "issuer": null,
      "profile": {
        "factory": 17,
        "building": 515
      },
      "failed": false,
      "errors": 0,
      "warnings": 0,
      "reasons": [],
      "source": "'use strict';\n\n//let welcome = require('./welcome');\n\nvar _interopRequireDefault = require('babel-runtime/helpers/interop-require-default')['default'];\n\nvar _welcome = require('./welcome');\n\nvar _welcome2 = _interopRequireDefault(_welcome);\n\n(0, _welcome2['default'])('home');\n\nexports.welcome = _welcome2['default'];"
    },
    {
      "id": 1,
      "identifier": "E:\\wamp64\\www\\qEVOLI\\TRAININGtask\\webPack\\part3\\node_modules\\babel-loader\\index.js?optional[]=runtime!E:\\wamp64\\www\\qEVOLI\\TRAININGtask\\webPack\\part3\\node_modules\\babel-runtime\\helpers\\interop-require-default.js",
      "name": "../~/babel-runtime/helpers/interop-require-default.js",
      "index": 1,
      "index2": 1,
      "size": 70,
      "cacheable": true,
      "built": true,
      "optional": false,
      "prefetched": false,
      "chunks": [
        2
      ],
      "assets": [],
      "issuer": "E:\\wamp64\\www\\qEVOLI\\TRAININGtask\\webPack\\part3\\node_modules\\babel-loader\\index.js?optional[]=runtime!E:\\wamp64\\www\\qEVOLI\\TRAININGtask\\webPack\\part3/frontend\\home.js",
      "profile": {
        "factory": 50,
        "building": 8
      },
      "failed": false,
      "errors": 0,
      "warnings": 0,
      "reasons": [
        {
          "moduleId": 0,
          "moduleIdentifier": "E:\\wamp64\\www\\qEVOLI\\TRAININGtask\\webPack\\part3\\node_modules\\babel-loader\\index.js?optional[]=runtime!E:\\wamp64\\www\\qEVOLI\\TRAININGtask\\webPack\\part3/frontend\\home.js",
          "module": "./home.js",
          "moduleName": "./home.js",
          "type": "cjs require",
          "userRequest": "babel-runtime/helpers/interop-require-default",
          "loc": "5:29-85"
        },
        {
          "moduleId": 0,
          "moduleIdentifier": "E:\\wamp64\\www\\qEVOLI\\TRAININGtask\\webPack\\part3\\node_modules\\babel-loader\\index.js?optional[]=runtime!E:\\wamp64\\www\\qEVOLI\\TRAININGtask\\webPack\\part3/frontend\\about.js",
          "module": "./about.js",
          "moduleName": "./about.js",
          "type": "cjs require",
          "userRequest": "babel-runtime/helpers/interop-require-default",
          "loc": "5:29-85"
        }
      ],
      "source": "\"use strict\";\n\nmodule.exports = require(\"./interopRequireDefault.js\");"
    },
    {
      "id": 2,
      "identifier": "E:\\wamp64\\www\\qEVOLI\\TRAININGtask\\webPack\\part3\\node_modules\\babel-loader\\index.js?optional[]=runtime!E:\\wamp64\\www\\qEVOLI\\TRAININGtask\\webPack\\part3\\node_modules\\babel-runtime\\helpers\\interopRequireDefault.js",
      "name": "../~/babel-runtime/helpers/interopRequireDefault.js",
      "index": 2,
      "index2": 0,
      "size": 148,
      "cacheable": true,
      "built": true,
      "optional": false,
      "prefetched": false,
      "chunks": [
        2
      ],
      "assets": [],
      "issuer": "E:\\wamp64\\www\\qEVOLI\\TRAININGtask\\webPack\\part3\\node_modules\\babel-loader\\index.js?optional[]=runtime!E:\\wamp64\\www\\qEVOLI\\TRAININGtask\\webPack\\part3\\node_modules\\babel-runtime\\helpers\\interop-require-default.js",
      "profile": {
        "factory": 3,
        "building": 11
      },
      "failed": false,
      "errors": 0,
      "warnings": 0,
      "reasons": [
        {
          "moduleId": 1,
          "moduleIdentifier": "E:\\wamp64\\www\\qEVOLI\\TRAININGtask\\webPack\\part3\\node_modules\\babel-loader\\index.js?optional[]=runtime!E:\\wamp64\\www\\qEVOLI\\TRAININGtask\\webPack\\part3\\node_modules\\babel-runtime\\helpers\\interop-require-default.js",
          "module": "../~/babel-runtime/helpers/interop-require-default.js",
          "moduleName": "../~/babel-runtime/helpers/interop-require-default.js",
          "type": "cjs require",
          "userRequest": "./interopRequireDefault.js",
          "loc": "3:17-54"
        }
      ],
      "source": "\"use strict\";\n\nexports.__esModule = true;\n\nexports[\"default\"] = function (obj) {\n  return obj && obj.__esModule ? obj : {\n    \"default\": obj\n  };\n};"
    },
    {
      "id": 3,
      "identifier": "E:\\wamp64\\www\\qEVOLI\\TRAININGtask\\webPack\\part3\\node_modules\\babel-loader\\index.js?optional[]=runtime!E:\\wamp64\\www\\qEVOLI\\TRAININGtask\\webPack\\part3/frontend\\welcome.js",
      "name": "./welcome.js",
      "index": 3,
      "index2": 2,
      "size": 319,
      "cacheable": true,
      "built": true,
      "optional": false,
      "prefetched": false,
      "chunks": [
        2
      ],
      "assets": [],
      "issuer": "E:\\wamp64\\www\\qEVOLI\\TRAININGtask\\webPack\\part3\\node_modules\\babel-loader\\index.js?optional[]=runtime!E:\\wamp64\\www\\qEVOLI\\TRAININGtask\\webPack\\part3/frontend\\home.js",
      "profile": {
        "factory": 18,
        "building": 32
      },
      "failed": false,
      "errors": 0,
      "warnings": 0,
      "reasons": [
        {
          "moduleId": 0,
          "moduleIdentifier": "E:\\wamp64\\www\\qEVOLI\\TRAININGtask\\webPack\\part3\\node_modules\\babel-loader\\index.js?optional[]=runtime!E:\\wamp64\\www\\qEVOLI\\TRAININGtask\\webPack\\part3/frontend\\home.js",
          "module": "./home.js",
          "moduleName": "./home.js",
          "type": "cjs require",
          "userRequest": "./welcome",
          "loc": "7:15-35"
        },
        {
          "moduleId": 0,
          "moduleIdentifier": "E:\\wamp64\\www\\qEVOLI\\TRAININGtask\\webPack\\part3\\node_modules\\babel-loader\\index.js?optional[]=runtime!E:\\wamp64\\www\\qEVOLI\\TRAININGtask\\webPack\\part3/frontend\\about.js",
          "module": "./about.js",
          "moduleName": "./about.js",
          "type": "cjs require",
          "userRequest": "./welcome",
          "loc": "7:15-35"
        }
      ],
      "source": "'use strict';\n\n//module.exports = function(message){//ES5\n\nObject.defineProperty(exports, '__esModule', {\n    value: true\n});\n\nexports['default'] = function (message) {\n\n    if (NODE_ENV == 'development') {\n        console.log(message);\n    }\n\n    alert('Welcome ' + message);\n};\n\n;\nmodule.exports = exports['default'];"
    }
  ],
  "filteredModules": 0,
  "children": []
}
